<?xml version="1.0" encoding="UTF-8"?>
<svg width="400px" height="400px" viewBox="0 0 400 400" version="1.1" xmlns="http://www.w3.org/2000/svg" xmlns:xlink="http://www.w3.org/1999/xlink">
    <!-- Generator: Sketch 44.1 (41455) - http://www.bohemiancoding.com/sketch -->
    <title>Combined Shape</title>
    <desc>Created with Sketch.</desc>
    <defs></defs>
    <g id="Page-1" stroke="none" stroke-width="1" fill="none" fill-rule="evenodd">
        <g id="Desktop" transform="translate(-1181.000000, -2587.000000)" fill="#FFFFFF">
            <path d="M1381,2987 C1270.54305,2987 1181,2897.45695 1181,2787 C1181,2676.54305 1270.54305,2587 1381,2587 C1491.45695,2587 1581,2676.54305 1581,2787 C1581,2897.45695 1491.45695,2987 1381,2987 Z M1439.23771,2695.875 C1439.82567,2688.588 1439.82567,2682.0255 1439.82567,2674 L1321.49991,2674 C1321.49991,2682.0255 1321.49991,2688.588 1322.08788,2695.875 L1286,2695.875 L1286,2703.162 C1286,2768.0625 1352.86212,2814 1368.83712,2824.199 L1368.82602,2848.99965 C1368.82602,2861.40015 1361.13814,2870.87465 1351.07602,2870.87465 L1339.2389,2870.87465 L1339.2389,2900.03665 L1422.07602,2900.03665 L1422.07602,2870.87465 L1410.2389,2870.87465 C1400.17678,2870.87465 1392.4889,2861.40015 1392.4889,2848.99965 L1392.4889,2824.21265 C1408.4639,2813.99965 1475.32602,2768.06215 1475.32602,2703.17565 L1475.32602,2695.88865 L1439.23771,2695.875 Z M1298.42483,2710.463 L1323.27483,2710.463 C1325.63779,2743.2755 1332.14983,2766.6135 1339.24983,2783.375 C1320.31271,2765.1505 1300.78771,2739.625 1298.42483,2710.463 Z M1422.67483,2783.375 C1429.77483,2766.5995 1436.28695,2743.2755 1438.64983,2710.463 L1463.49983,2710.463 C1460.53771,2739.625 1441.01271,2765.1505 1422.67483,2783.375 Z" id="Combined-Shape"></path>
        </g>
    </g>
</svg>